{
  "123456788": {
    "检测站点": {
      "url": "https://dailianshop.cn/status/qsgin"
    }
  },
  "寒暄": {
    "9070": {
      "url": "https://api.qsign.icu"
    },
  },
  "zhaodice": {
    "9056(1)": {
      "url": "https://qsign.trpgbot.com"
    },
    "9056(2)": {
      "url": "http://qsign-v3.trpgbot.com"
    },
    "9056(3)": {
      "url": "http://qsign.w1.luyouxia.net"
    },
    "9056(4)": {
      "url": "https://zyr15r-astralqsign.hf.space"
    },
    "9056(5)": {
      "url": "https://qsign-guide.trpgbot.com?key=miraibbs"
    },
    "9056(6)": {
      "url": "http://api.furinaa.net"
    },
    "9056(7)": {
      "url": "http://110.40.45.169:7890/?key=0852369&ver=9.0.90"
    },
    "memo": "签名除了(5)都要挂梯子。"
  },
  "Parker Liang": {
    "9055-9090": {
      "url": "https://parkerliang-qsign.hf.space/?key=tx.sb"
    },
    "memo": "因抱脸协议，已不对外提供"
  },
  "dmmdekkd": {
    "9090": {
      "url": "https://api.yunzaibot.cn/?key=0865239"
    }
  },
  "豆花": {
    "9010": {
      "url": "https://q-sign.wuliya.cn"
    }
  }
}
